^C:\USERS\NIGMA\SOURCE\REPOS\OSLAB3\OSLAB3\OSLAB3.CPP
C:\USERS\NIGMA\SOURCE\REPOS\OSLAB3\OSLAB3\DEBUG\VC142.PDB
C:\USERS\NIGMA\SOURCE\REPOS\OSLAB3\OSLAB3\DEBUG\VC142.IDB
C:\USERS\NIGMA\SOURCE\REPOS\OSLAB3\OSLAB3\DEBUG\OSLAB3.OBJ
